…
``` r
month_df = 
  tibble(
    month = 1:12,
    month_name = month.name
  )

precip_df = 
  bind_rows(precip_2017, precip_2018)

left_join(precip_df, month_df, by = "month")
```

    ## # A tibble: 24 x 4
    ##     year month total month_name
    ##    <dbl> <dbl> <dbl> <chr>     
    ##  1  2017     1  2.34 January   
    ##  2  2017     2  1.46 February  
    ##  3  2017     3  3.57 March     
    ##  4  2017     4  3.99 April     
    ##  5  2017     5  5.64 May       
    ##  6  2017     6  1.4  June      
    ##  7  2017     7  7.09 July      
    ##  8  2017     8  4.44 August    
    ##  9  2017     9  1.95 September 
    ## 10  2017    10  0    October   
    ## # ... with 14 more rows
…
# Part b

Descriptive understanding of the data frame.

``` r
nrow(distinct(nyc_transit, line, station_name))
```

    ## [1] 465

``` r
filter(nyc_transit, ada == "TRUE")
```

    ## # A tibble: 468 x 19
    ##    line  station_name station_latitude station_longitu~ route1 route2 route3
    ##    <chr> <chr>                   <dbl>            <dbl> <chr>  <chr>  <chr> 
    ##  1 4 Av~ Atlantic Av~             40.7            -74.0 B      Q      D     
    ##  2 4 Av~ DeKalb Av                40.7            -74.0 B      Q      R     
    ##  3 4 Av~ DeKalb Av                40.7            -74.0 B      Q      R     
    ##  4 4 Av~ DeKalb Av                40.7            -74.0 B      Q      R     
    ##  5 4 Av~ DeKalb Av                40.7            -74.0 B      Q      R     
    ##  6 4 Av~ DeKalb Av                40.7            -74.0 B      Q      R     
    ##  7 4 Av~ DeKalb Av                40.7            -74.0 B      Q      R     
    ##  8 4 Av~ Pacific St               40.7            -74.0 B      Q      D     
    ##  9 4 Av~ Pacific St               40.7            -74.0 B      Q      D     
    ## 10 42nd~ Grand Centr~             40.8            -74.0 GS     4      5     
    ## # ... with 458 more rows, and 12 more variables: route4 <chr>, route5 <chr>,
    ## #   route6 <chr>, route7 <chr>, route8 <dbl>, route9 <dbl>, route10 <dbl>,
    ## #   route11 <dbl>, entry <chr>, vending <chr>, entrance_type <chr>, ada <lgl>

``` r
filter(nyc_transit, vending == "NO")
```

    ## # A tibble: 183 x 19
    ##    line  station_name station_latitude station_longitu~ route1 route2 route3
    ##    <chr> <chr>                   <dbl>            <dbl> <chr>  <chr>  <chr> 
    ##  1 4 Av~ 53rd St                  40.6            -74.0 R      <NA>   <NA>  
    ##  2 4 Av~ 77th St                  40.6            -74.0 R      <NA>   <NA>  
    ##  3 4 Av~ 9th St                   40.7            -74.0 F      G      R     
    ##  4 4 Av~ Bay Ridge Av             40.6            -74.0 R      <NA>   <NA>  
    ##  5 42nd~ Grand Centr~             40.8            -74.0 GS     4      5     
    ##  6 42nd~ Grand Centr~             40.8            -74.0 GS     4      5     
    ##  7 6 Av~ 7th Av                   40.7            -74.0 F      <NA>   <NA>  
    ##  8 6 Av~ 7th Av                   40.7            -74.0 F      <NA>   <NA>  
    ##  9 6 Av~ 7th Av                   40.7            -74.0 F      <NA>   <NA>  
    ## 10 6 Av~ 7th Av                   40.7            -74.0 F      <NA>   <NA>  
    ## # ... with 173 more rows, and 12 more variables: route4 <chr>, route5 <chr>,
    ## #   route6 <chr>, route7 <chr>, route8 <dbl>, route9 <dbl>, route10 <dbl>,
    ## #   route11 <dbl>, entry <chr>, vending <chr>, entrance_type <chr>, ada <lgl>
…
